// Jest Snapshot v1, https://goo.gl/fbAQLP

exports[`Server - add feedback should add feedback data 1`] = `
Object {
  "data": Object {
    "addFeedback": Object {
      "message": "message.feedbackSuccess",
    },
  },
  "errors": undefined,
  "extensions": undefined,
  "http": Object {
    "headers": Headers {
      Symbol(map): Object {},
    },
  },
}
`;
