// Jest Snapshot v1, https://goo.gl/fbAQLP

exports[`Server - logging write logging data 1`] = `
Object {
  "data": Object {
    "log": true,
  },
  "errors": undefined,
  "extensions": undefined,
  "http": Object {
    "headers": Headers {
      Symbol(map): Object {},
    },
  },
}
`;
